{
  "project_info": {
    "project_number": "284230566657",
    "firebase_url": "https://applicationbase-e1c3b.firebaseio.com",
    "project_id": "applicationbase-e1c3b",
    "storage_bucket": "applicationbase-e1c3b.appspot.com"
  },
  "client": [
    {
      "client_info": {
        "mobilesdk_app_id": "1:284230566657:android:e0ddd1b9f368ea0b",
        "android_client_info": {
          "package_name": "com.example.appbase"
        }
      },
      "oauth_client": [
        {
          "client_id": "284230566657-8rav8t450pmdkkbcfn9ejhnso57u3b83.apps.googleusercontent.com",
          "client_type": 3
        }
      ],
      "api_key": [
        {
          "current_key": "AIzaSyDc0eAv1Vm2-gPzbMJOUBImOnuHaTQcHCo"
        }
      ],
      "services": {
        "analytics_service": {
          "status": 1
        },
        "appinvite_service": {
          "status": 1,
          "other_platform_oauth_client": []
        },
        "ads_service": {
          "status": 2
        }
      }
    },
    {
      "client_info": {
        "mobilesdk_app_id": "1:284230566657:android:3d300ee727c2fa65",
        "android_client_info": {
          "package_name": "pe.yapu.appbase"
        }
      },
      "oauth_client": [
        {
          "client_id": "284230566657-8rav8t450pmdkkbcfn9ejhnso57u3b83.apps.googleusercontent.com",
          "client_type": 3
        }
      ],
      "api_key": [
        {
          "current_key": "AIzaSyDc0eAv1Vm2-gPzbMJOUBImOnuHaTQcHCo"
        }
      ],
      "services": {
        "analytics_service": {
          "status": 1
        },
        "appinvite_service": {
          "status": 1,
          "other_platform_oauth_client": []
        },
        "ads_service": {
          "status": 2
        }
      }
    }
  ],
  "configuration_version": "1"
}